{
  "project_info": {
    "project_number": "411476527557",
    "project_id": "whatsapp-auto-service",
    "storage_bucket": "whatsapp-auto-service.appspot.com"
  },
  "client": [
    {
      "client_info": {
        "mobilesdk_app_id": "1:411476527557:android:61cdd04d2cd846a87063ac",
        "android_client_info": {
          "package_name": "com.nataproperty.whatsappblastnew"
        }
      },
      "oauth_client": [
        {
          "client_id": "411476527557-47bus96ces479afusbnebuossriq4er1.apps.googleusercontent.com",
          "client_type": 1,
          "android_info": {
            "package_name": "com.nataproperty.whatsappblastnew",
            "certificate_hash": "9eb09952647a7bb2bae89fc908715a9b6d99c3f0"
          }
        },
        {
          "client_id": "411476527557-c3tgvjf8ptisg3p7mq6sj5j4dio51c09.apps.googleusercontent.com",
          "client_type": 3
        }
      ],
      "api_key": [
        {
          "current_key": "AIzaSyB6voIKygKuDk2UT04_YstWWCmHTDb4NLQ"
        }
      ],
      "services": {
        "appinvite_service": {
          "other_platform_oauth_client": [
            {
              "client_id": "411476527557-c3tgvjf8ptisg3p7mq6sj5j4dio51c09.apps.googleusercontent.com",
              "client_type": 3
            }
          ]
        }
      }
    }
  ],
  "configuration_version": "1"
}